<?xml version="1.0" encoding="iso-8859-1"?>
<!-- Generator: Adobe Illustrator 17.1.0, SVG Export Plug-In . SVG Version: 6.00 Build 0)  -->
<svg version="1.2" baseProfile="tiny" id="Layer_1" xmlns="http://www.w3.org/2000/svg" xmlns:xlink="http://www.w3.org/1999/xlink"
	 x="0px" y="0px" viewBox="0 0 36.666 28.834" xml:space="preserve">
<path fill="#193F4A" d="M35.666,0H1C0.447,0,0,0.448,0,1v0.866v25.086v0.882c0,0.552,0.447,1,1,1h34.666c0.553,0,1-0.448,1-1v-0.882
	V1.866V1C36.666,0.448,36.219,0,35.666,0z M34.666,24.537l-7.162-7.162l-2.967-2.966L34.666,4.28V24.537z M34.117,2L19.04,17.078
	c-0.379,0.378-1.035,0.378-1.414,0L2.549,2H34.117z M2,24.537V4.28l10.129,10.129l-2.967,2.966L2,24.537z M2.532,26.834
	l11.011-11.011l2.669,2.669c0.566,0.567,1.32,0.879,2.121,0.879c0.801,0,1.555-0.312,2.121-0.879l2.669-2.669l11.011,11.011H2.532z"
	/>
</svg>
