<?xml version="1.0" encoding="iso-8859-1"?>
<!-- Generator: Adobe Illustrator 17.1.0, SVG Export Plug-In . SVG Version: 6.00 Build 0)  -->
<svg version="1.2" baseProfile="tiny" id="Layer_1" xmlns="http://www.w3.org/2000/svg" xmlns:xlink="http://www.w3.org/1999/xlink"
	 x="0px" y="0px" viewBox="0 0 38.623 16.625" xml:space="preserve">
<path fill="#193F4A" d="M30.31,0c-3.555,0-6.58,2.236-7.769,5.375H1.998c-1.1,0-1.99,0.888-1.998,1.985l2.889,3.89h2.083
	l2.182-2.937l2.182,2.937h3.156l2.538-3.417l2.538,3.417h4.975c1.188,3.139,4.214,5.375,7.769,5.375
	c4.591,0,8.313-3.722,8.313-8.312S34.901,0,30.31,0z M33.374,10.625c-1.242,0-2.25-1.008-2.25-2.25c0-1.242,1.008-2.25,2.25-2.25
	c1.242,0,2.25,1.008,2.25,2.25C35.624,9.617,34.616,10.625,33.374,10.625z"/>
</svg>
